{
  "results": [
    {
      "vote_count": 807,
      "id": 166428,
      "video": false,
      "vote_average": 7.9,
      "title": "How to Train Your Dragon: The Hidden World",
      "popularity": 201.622,
      "poster_path": "/xvx4Yhf0DVH8G4LzNISpMfFBDy2.jpg",
      "original_language": "en",
      "original_title": "How to Train Your Dragon: The Hidden World",
      "genre_ids": [
        16,
        10751,
        12
      ],
      "backdrop_path": "/h3KN24PrOheHVYs9ypuOIdFBEpX.jpg",
      "adult": false,
      "overview": "As Hiccup fulfills his dream of creating a peaceful dragon utopia, Toothless’ discovery of an untamed, elusive mate draws the Night Fury away. When danger mounts at home and Hiccup’s reign as village chief is tested, both dragon and rider must make impossible decisions to save their kind.",
      "release_date": "2019-01-03"
    },
    {
      "vote_count": 90,
      "id": 452832,
      "video": false,
      "vote_average": 4.8,
      "title": "Serenity",
      "popularity": 118.619,
      "poster_path": "/hgWAcic93phg4DOuQ8NrsgQWiqu.jpg",
      "original_language": "en",
      "original_title": "Serenity",
      "genre_ids": [
        53,
        18,
        9648,
        878
      ],
      "backdrop_path": "/oOROXoQ402tHgK6NowmMUSLffkW.jpg",
      "adult": false,
      "overview": "Baker Dill is a fishing boat captain leading tours off a tranquil, tropical enclave called Plymouth Island. His quiet life is shattered, however, when his ex-wife Karen tracks him down with a desperate plea for help.",
      "release_date": "2019-01-24"
    },
    {
      "vote_count": 0,
      "id": 299537,
      "video": false,
      "vote_average": 0,
      "title": "Captain Marvel",
      "popularity": 93.6,
      "poster_path": "/vW2dy7UyZqqpEP3bHageT9bei0o.jpg",
      "original_language": "en",
      "original_title": "Captain Marvel",
      "genre_ids": [
        28,
        12,
        878,
        9648
      ],
      "backdrop_path": "/d1hQaeKeAW3FBc3v6tIP5utleU0.jpg",
      "adult": false,
      "overview": "The story follows Carol Danvers as she becomes one of the universe’s most powerful heroes when Earth is caught in the middle of a galactic war between two alien races. Set in the 1990s, Captain Marvel is an all-new adventure from a previously unseen period in the history of the Marvel Cinematic Universe.",
      "release_date": "2019-03-06"
    },
    {
      "vote_count": 296,
      "id": 457136,
      "video": false,
      "vote_average": 6.6,
      "title": "Mary Queen of Scots",
      "popularity": 81.58,
      "poster_path": "/b5RMzLAyq5QW6GtN9sIeAEMLlBI.jpg",
      "original_language": "en",
      "original_title": "Mary Queen of Scots",
      "genre_ids": [
        18,
        36
      ],
      "backdrop_path": "/iv5N169nQIzrS0pZ8MBEiemTtVt.jpg",
      "adult": false,
      "overview": "In 1561, Mary Stuart, widow of the King of France, returns to Scotland, reclaims her rightful throne and menaces the future of Queen Elizabeth I as ruler of England, because she has a legitimate claim to the English throne. Betrayals, rebellions, conspiracies and their own life choices imperil both Queens. They experience the bitter cost of power, until their tragic fate is finally fulfilled.",
      "release_date": "2018-12-21"
    },
    {
      "vote_count": 719,
      "id": 504172,
      "video": false,
      "vote_average": 6.5,
      "title": "The Mule",
      "popularity": 77.582,
      "poster_path": "/t0idiLMalKMj2pLsvqHrOM4LPdQ.jpg",
      "original_language": "en",
      "original_title": "The Mule",
      "genre_ids": [
        80,
        18,
        53
      ],
      "backdrop_path": "/wVhrbxbMmFfx05YNlqsQfu1gRS5.jpg",
      "adult": false,
      "overview": "Earl Stone, a man in his 80s who is broke, alone, and facing foreclosure of his business when he is offered a job that simply requires him to drive. Easy enough, but, unbeknownst to Earl, he’s just signed on as a drug courier for a Mexican cartel. He does so well that his cargo increases exponentially, and Earl hit the radar of hard-charging DEA agent Colin Bates.",
      "release_date": "2018-12-14"
    },
    {
      "vote_count": 302,
      "id": 522681,
      "video": false,
      "vote_average": 6.2,
      "title": "Escape Room",
      "popularity": 73.934,
      "poster_path": "/8yZAx7tlKRZIg7pJfaPhl00yHIQ.jpg",
      "original_language": "en",
      "original_title": "Escape Room",
      "genre_ids": [
        27,
        53,
        28
      ],
      "backdrop_path": "/mWLljCmpqlcYQh7uh51BBMwCZwN.jpg",
      "adult": false,
      "overview": "Six strangers find themselves in circumstances beyond their control, and must use their wits to survive.",
      "release_date": "2019-01-03"
    },
    {
      "vote_count": 37,
      "id": 471507,
      "video": false,
      "vote_average": 6.7,
      "title": "Destroyer",
      "popularity": 60.777,
      "poster_path": "/sHw9gTdo43nJL82py0oaROkXXNr.jpg",
      "original_language": "en",
      "original_title": "Destroyer",
      "genre_ids": [
        53,
        80,
        18,
        28
      ],
      "backdrop_path": "/n4eLeK2OdxRDqwIJtwYC212vmBF.jpg",
      "adult": false,
      "overview": "Erin Bell is an LAPD detective who, as a young cop, was placed undercover with a gang in the California desert with tragic results. When the leader of that gang re-emerges many years later, she must work her way back through the remaining members and into her own history with them to finally reckon with the demons that destroyed her past.",
      "release_date": "2018-12-25"
    },
    {
      "vote_count": 1283,
      "id": 424783,
      "video": false,
      "vote_average": 6.4,
      "title": "Bumblebee",
      "popularity": 59.166,
      "poster_path": "/fw02ONlDhrYjTSZV8XO6hhU3ds3.jpg",
      "original_language": "en",
      "original_title": "Bumblebee",
      "genre_ids": [
        28,
        12,
        878
      ],
      "backdrop_path": "/hMANgfPHR1tRObNp2oPiOi9mMlz.jpg",
      "adult": false,
      "overview": "On the run in the year 1987, Bumblebee finds refuge in a junkyard in a small Californian beach town. Charlie, on the cusp of turning 18 and trying to find her place in the world, discovers Bumblebee, battle-scarred and broken.  When Charlie revives him, she quickly learns this is no ordinary yellow VW bug.",
      "release_date": "2018-12-15"
    },
    {
      "vote_count": 30,
      "id": 487297,
      "video": false,
      "vote_average": 5.6,
      "title": "What Men Want",
      "popularity": 54.046,
      "poster_path": "/30IiwvIRqPGjUV0bxJkZfnSiCL.jpg",
      "original_language": "en",
      "original_title": "What Men Want",
      "genre_ids": [
        35,
        14,
        10749
      ],
      "backdrop_path": "/umecegsPpKr2ZXA62Da9CQBVoIO.jpg",
      "adult": false,
      "overview": "Magically able to hear what men are thinking, a sports agent uses her newfound ability to turn the tables on her overbearing male colleagues.",
      "release_date": "2019-02-08"
    },
    {
      "vote_count": 396,
      "id": 398173,
      "video": false,
      "vote_average": 7.3,
      "title": "The House That Jack Built",
      "popularity": 53.418,
      "poster_path": "/bMUGNkPaHOurcBK9g3XpJx3fxuO.jpg",
      "original_language": "en",
      "original_title": "The House That Jack Built",
      "genre_ids": [
        18,
        27,
        80,
        53
      ],
      "backdrop_path": "/regL3STcZA6HSvg4PhfT8jEMx64.jpg",
      "adult": false,
      "overview": "Failed architect, engineer and vicious murderer Jack narrates the details of some of his most elaborately orchestrated crimes, each of them a towering piece of art that defines his life's work as a serial killer for twelve years.",
      "release_date": "2018-10-08"
    },
    {
      "vote_count": 114,
      "id": 492452,
      "video": false,
      "vote_average": 6.9,
      "title": "Ben Is Back",
      "popularity": 43.757,
      "poster_path": "/eSPiprXuWqwMGi6t8BkdiTz9Ou3.jpg",
      "original_language": "en",
      "original_title": "Ben Is Back",
      "genre_ids": [
        18
      ],
      "backdrop_path": "/toMVitiGKo1ICxTSvZJII5lXBwz.jpg",
      "adult": false,
      "overview": "19-year-old Ben Burns unexpectedly returns home to his family's suburban home on Christmas Eve morning. Ben's mother, Holly, is relieved and welcoming but wary of her son staying clean. Over a turbulent 24 hours, new truths are revealed, and a mother's undying love for her son is tested as she does everything in her power to keep him safe.",
      "release_date": "2018-12-05"
    },
    {
      "vote_count": 0,
      "id": 433502,
      "video": false,
      "vote_average": 0,
      "title": "The Aftermath",
      "popularity": 41.174,
      "poster_path": "/z7cgORuJIJbJmd3oiRmz1kjAarI.jpg",
      "original_language": "en",
      "original_title": "The Aftermath",
      "genre_ids": [
        18,
        10749,
        10752
      ],
      "backdrop_path": "/nqJe2wnYddmYn2cUkMfnULd8QRj.jpg",
      "adult": false,
      "overview": "In the aftermath of World War II, a British colonel and his wife are assigned to live in Hamburg during the post-war reconstruction, but tensions arise with the German widower who lives with them.",
      "release_date": "2019-03-01"
    },
    {
      "vote_count": 459,
      "id": 503314,
      "video": false,
      "vote_average": 7.5,
      "title": "Dragon Ball Super: Broly",
      "popularity": 39.238,
      "poster_path": "/f03YksE4NggUjG75toz4H1YAGRf.jpg",
      "original_language": "ja",
      "original_title": "ドラゴンボール超スーパー ブロリー",
      "genre_ids": [
        28,
        16,
        14,
        12,
        35
      ],
      "backdrop_path": "/6OTRuxpwUUGbmCX3MKP25dOmo59.jpg",
      "adult": false,
      "overview": "Earth is peaceful following the Tournament of Power. Realizing that the universes still hold many more strong people yet to see, Goku spends all his days training to reach even greater heights. Then one day, Goku and Vegeta are faced by a Saiyan called 'Broly' who they've never seen before. The Saiyans were supposed to have been almost completely wiped out in the destruction of Planet Vegeta, so what's this one doing on Earth? This encounter between the three Saiyans who have followed completely different destinies turns into a stupendous battle, with even Frieza (back from Hell) getting caught up in the mix.",
      "release_date": "2018-12-14"
    },
    {
      "vote_count": 27,
      "id": 445629,
      "video": false,
      "vote_average": 7.9,
      "title": "Fighting with My Family",
      "popularity": 38.199,
      "poster_path": "/3TZCBAdKQiz0cGKGEjZiyZUA01O.jpg",
      "original_language": "en",
      "original_title": "Fighting with My Family",
      "genre_ids": [
        35,
        18
      ],
      "backdrop_path": "/mYKP6qcDUimVMAHQWLOuDHjO19S.jpg",
      "adult": false,
      "overview": "Born into a tight-knit wrestling family, Paige and her brother Zak are ecstatic when they get the once-in-a-lifetime opportunity to try out for the WWE. But when only Paige earns a spot in the competitive training program, she must leave her loved ones behind and face this new cutthroat world alone. Paige's journey pushes her to dig deep and ultimately prove to the world that what makes her different is the very thing that can make her a star.",
      "release_date": "2019-02-14"
    },
    {
      "vote_count": 85,
      "id": 515042,
      "video": false,
      "vote_average": 8.2,
      "title": "Free Solo",
      "popularity": 33.796,
      "poster_path": "/oQZ4T3638UIZS7JV1SLTdqPmezx.jpg",
      "original_language": "en",
      "original_title": "Free Solo",
      "genre_ids": [
        99
      ],
      "backdrop_path": "/z2uuQasY4gQJ8VDAFki746JWeQJ.jpg",
      "adult": false,
      "overview": "Follow Alex Honnold as he attempts to become the first person to ever free solo climb Yosemite's 3,000 foot high El Capitan wall. With no ropes or safety gear, this would arguably be the greatest feat in rock climbing history.",
      "release_date": "2018-12-14"
    },
    {
      "vote_count": 329,
      "id": 491472,
      "video": false,
      "vote_average": 6.8,
      "title": "At Eternity's Gate",
      "popularity": 33.1,
      "poster_path": "/7rUnZrcSyfwfloeI5aoccztSLSg.jpg",
      "original_language": "en",
      "original_title": "At Eternity's Gate",
      "genre_ids": [
        18
      ],
      "backdrop_path": "/vmLDDBvF022Scen7jF0nN8uIlEe.jpg",
      "adult": false,
      "overview": "Famed but tormented artist Vincent van Gogh spends his final years in Arles, France, painting masterworks of the natural world that surrounds him.",
      "release_date": "2018-11-15"
    },
    {
      "vote_count": 191,
      "id": 472451,
      "video": false,
      "vote_average": 7.3,
      "title": "Boy Erased",
      "popularity": 32.474,
      "poster_path": "/oZbhTdi0ZQY7iiSQ0L7h3ya6NDF.jpg",
      "original_language": "en",
      "original_title": "Boy Erased",
      "genre_ids": [
        18
      ],
      "backdrop_path": "/2ePViXIOnifrugvnjlFxzmvjwKL.jpg",
      "adult": false,
      "overview": "Jared, the son of a Baptist pastor in a small American town, is outed to his parents at age 19. Jared is faced with an ultimatum: attend a gay conversion therapy program – or be permanently exiled and shunned by his family, friends, and faith.",
      "release_date": "2018-09-24"
    },
    {
      "vote_count": 283,
      "id": 401545,
      "video": false,
      "vote_average": 6.6,
      "title": "Everybody Knows",
      "popularity": 30.66,
      "poster_path": "/um7ikmficsPsiOZwp7VkKdSnBs7.jpg",
      "original_language": "es",
      "original_title": "Todos lo saben",
      "genre_ids": [
        18,
        80,
        9648,
        53
      ],
      "backdrop_path": "/gJqQxpe03aIRZZjy8A4nbLtBpch.jpg",
      "adult": false,
      "overview": "Laura, a Spanish woman living in Buenos Aires, returns to her hometown outside Madrid with her Argentinian husband and children. However, the trip is upset by unexpected events that bring secrets into the open.",
      "release_date": "2018-05-09"
    },
    {
      "vote_count": 9,
      "id": 500852,
      "video": false,
      "vote_average": 7.1,
      "title": "Miss Bala",
      "popularity": 29.974,
      "poster_path": "/ae9yrSAS7nLZPbbkOm61pSuIqeo.jpg",
      "original_language": "en",
      "original_title": "Miss Bala",
      "genre_ids": [
        53,
        28,
        18
      ],
      "backdrop_path": "/jUCmbpF7xDXUYfYo5ABjWn250A6.jpg",
      "adult": false,
      "overview": "Gloria finds a power she never knew she had when she is drawn into a dangerous world of cross-border crime. Surviving will require all of her cunning, inventiveness, and strength.",
      "release_date": "2019-02-01"
    },
    {
      "vote_count": 153,
      "id": 515916,
      "video": false,
      "vote_average": 7.7,
      "title": "Girl",
      "popularity": 27.748,
      "poster_path": "/a6WKjZ1eHrKV8u1DYqjW4yUPuC.jpg",
      "original_language": "nl",
      "original_title": "Girl",
      "genre_ids": [
        18
      ],
      "backdrop_path": "/iGCHoFp4VUwMoolO2C2u12AgiKl.jpg",
      "adult": false,
      "overview": "A 15-year-old girl, born in a boy's body, dreams of becoming a ballerina and will push her body to its limits in order for her dream to succeed.",
      "release_date": "2018-09-27"
    }
  ],
  "page": 1,
  "total_results": 209,
  "dates": {
    "maximum": "2019-03-25",
    "minimum": "2019-03-08"
  },
  "total_pages": 11
}